SplineFontDB: 3.0
FontName: ShmiganEtched
FullName: ShmiganEtched
FamilyName: ShmiganEtched
Weight: Regular
Copyright: Copyright (c) 2018, Louis
UComments: "2018-6-13: Created with FontForge (http://fontforge.org)"
Version: 001.000
ItalicAngle: 0
UnderlinePosition: -100
UnderlineWidth: 50
Ascent: 800
Descent: 200
InvalidEm: 0
LayerCount: 2
Layer: 0 0 "Back" 1
Layer: 1 0 "Fore" 0
XUID: [1021 572 56815590 8413]
OS2Version: 0
OS2_WeightWidthSlopeOnly: 0
OS2_UseTypoMetrics: 1
CreationTime: 1528947412
ModificationTime: 1528948642
OS2TypoAscent: 0
OS2TypoAOffset: 1
OS2TypoDescent: 0
OS2TypoDOffset: 1
OS2TypoLinegap: 0
OS2WinAscent: 0
OS2WinAOffset: 1
OS2WinDescent: 0
OS2WinDOffset: 1
HheadAscent: 0
HheadAOffset: 1
HheadDescent: 0
HheadDOffset: 1
OS2Vendor: 'PfEd'
Lookup: 4 0 1 "'liga' Standard Ligatures in Latin lookup 0" { "'liga' Standard Ligatures in Latin lookup 0-1"  } ['liga' ('DFLT' <'dflt' > 'latn' <'dflt' > ) ]
MarkAttachClasses: 1
DEI: 91125
Encoding: ISO8859-1
Compacted: 1
UnicodeInterp: none
NameList: AGL For New Fonts
DisplaySize: -48
AntiAlias: 1
FitToEm: 0
WinInfo: 0 39 14
BeginPrivate: 0
EndPrivate
BeginChars: 460 204

StartChar: sh_space
Encoding: 256 -1 0
Width: 574
VWidth: 0
Flags: HW
LayerCount: 2
Comment: "."
EndChar

StartChar: sh_ti
Encoding: 257 -1 1
Width: 574
VWidth: 0
Flags: HW
LayerCount: 2
Comment: "."
EndChar

StartChar: sh_ki
Encoding: 258 -1 2
Width: 574
VWidth: 0
Flags: HW
LayerCount: 2
Comment: "."
EndChar

StartChar: sh_pi
Encoding: 259 -1 3
Width: 574
VWidth: 0
Flags: HW
LayerCount: 2
Comment: "."
EndChar

StartChar: sh_thi
Encoding: 260 -1 4
Width: 574
VWidth: 0
Flags: HW
LayerCount: 2
Comment: "."
EndChar

StartChar: sh_shi
Encoding: 261 -1 5
Width: 574
VWidth: 0
Flags: HW
LayerCount: 2
Comment: "."
EndChar

StartChar: sh_xi
Encoding: 262 -1 6
Width: 574
VWidth: 0
Flags: HW
LayerCount: 2
Comment: "."
EndChar

StartChar: sh_ri
Encoding: 263 -1 7
Width: 574
VWidth: 0
Flags: HW
LayerCount: 2
Comment: "."
EndChar

StartChar: sh_li
Encoding: 264 -1 8
Width: 574
VWidth: 0
Flags: HW
LayerCount: 2
Comment: "."
EndChar

StartChar: sh_ni
Encoding: 265 -1 9
Width: 574
VWidth: 0
Flags: HW
LayerCount: 2
Comment: "."
EndChar

StartChar: sh_sti
Encoding: 266 -1 10
Width: 574
VWidth: 0
Flags: HW
LayerCount: 2
Comment: "."
EndChar

StartChar: sh_ski
Encoding: 267 -1 11
Width: 574
VWidth: 0
Flags: HW
LayerCount: 2
Comment: "."
EndChar

StartChar: sh_spi
Encoding: 268 -1 12
Width: 574
VWidth: 0
Flags: HW
LayerCount: 2
Comment: "."
EndChar

StartChar: sh_sthi
Encoding: 269 -1 13
Width: 574
VWidth: 0
Flags: HW
LayerCount: 2
Comment: "."
EndChar

StartChar: sh_sshi
Encoding: 270 -1 14
Width: 574
VWidth: 0
Flags: HW
LayerCount: 2
Comment: "."
EndChar

StartChar: sh_sxi
Encoding: 271 -1 15
Width: 574
VWidth: 0
Flags: HW
LayerCount: 2
Comment: "."
EndChar

StartChar: sh_sri
Encoding: 272 -1 16
Width: 574
VWidth: 0
Flags: HW
LayerCount: 2
Comment: "."
EndChar

StartChar: sh_sli
Encoding: 273 -1 17
Width: 574
VWidth: 0
Flags: HW
LayerCount: 2
Comment: "."
EndChar

StartChar: sh_sni
Encoding: 274 -1 18
Width: 574
VWidth: 0
Flags: HW
LayerCount: 2
Comment: "."
EndChar

StartChar: sh_stri
Encoding: 275 -1 19
Width: 574
VWidth: 0
Flags: HW
LayerCount: 2
Comment: "."
EndChar

StartChar: sh_skri
Encoding: 276 -1 20
Width: 574
VWidth: 0
Flags: HW
LayerCount: 2
Comment: "."
EndChar

StartChar: sh_spri
Encoding: 277 -1 21
Width: 574
VWidth: 0
Flags: HW
LayerCount: 2
Comment: "."
EndChar

StartChar: sh_thri
Encoding: 278 -1 22
Width: 574
VWidth: 0
Flags: HW
LayerCount: 2
Comment: "."
EndChar

StartChar: sh_shri
Encoding: 279 -1 23
Width: 574
VWidth: 0
Flags: HW
LayerCount: 2
Comment: "."
EndChar

StartChar: sh_xri
Encoding: 280 -1 24
Width: 574
VWidth: 0
Flags: HW
LayerCount: 2
Comment: "."
EndChar

StartChar: sh_thli
Encoding: 281 -1 25
Width: 574
VWidth: 0
Flags: HW
LayerCount: 2
Comment: "."
EndChar

StartChar: sh_shli
Encoding: 282 -1 26
Width: 574
VWidth: 0
Flags: HW
LayerCount: 2
Comment: "."
EndChar

StartChar: sh_xli
Encoding: 283 -1 27
Width: 574
VWidth: 0
Flags: HW
LayerCount: 2
Comment: "."
EndChar

StartChar: sh_fi
Encoding: 284 -1 28
Width: 574
VWidth: 0
Flags: HW
LayerCount: 2
Comment: "."
EndChar

StartChar: sh_yi
Encoding: 285 -1 29
Width: 574
VWidth: 0
Flags: HW
LayerCount: 2
Comment: "."
EndChar

StartChar: sh_si
Encoding: 286 -1 30
Width: 574
VWidth: 0
Flags: HW
LayerCount: 2
Comment: "."
EndChar

StartChar: sh_mi
Encoding: 287 -1 31
Width: 574
VWidth: 0
Flags: HW
LayerCount: 2
Comment: "."
EndChar

StartChar: sh_wi
Encoding: 288 -1 32
Width: 574
VWidth: 0
Flags: HW
LayerCount: 2
Comment: "."
EndChar

StartChar: sh_hi
Encoding: 289 -1 33
Width: 574
VWidth: 0
Flags: HW
LayerCount: 2
Comment: "."
EndChar

StartChar: sh_te
Encoding: 290 -1 34
Width: 574
VWidth: 0
Flags: HW
LayerCount: 2
Comment: "."
EndChar

StartChar: sh_ke
Encoding: 291 -1 35
Width: 574
VWidth: 0
Flags: HW
LayerCount: 2
Comment: "."
EndChar

StartChar: sh_pe
Encoding: 292 -1 36
Width: 574
VWidth: 0
Flags: HW
LayerCount: 2
Comment: "."
EndChar

StartChar: sh_the
Encoding: 293 -1 37
Width: 574
VWidth: 0
Flags: HW
LayerCount: 2
Comment: "."
EndChar

StartChar: sh_she
Encoding: 294 -1 38
Width: 574
VWidth: 0
Flags: HW
LayerCount: 2
Comment: "."
EndChar

StartChar: sh_xe
Encoding: 295 -1 39
Width: 574
VWidth: 0
Flags: HW
LayerCount: 2
Comment: "."
EndChar

StartChar: sh_re
Encoding: 296 -1 40
Width: 574
VWidth: 0
Flags: HW
LayerCount: 2
Comment: "."
EndChar

StartChar: sh_le
Encoding: 297 -1 41
Width: 574
VWidth: 0
Flags: HW
LayerCount: 2
Comment: "."
EndChar

StartChar: sh_ne
Encoding: 298 -1 42
Width: 574
VWidth: 0
Flags: HW
LayerCount: 2
Comment: "."
EndChar

StartChar: sh_ste
Encoding: 299 -1 43
Width: 574
VWidth: 0
Flags: HW
LayerCount: 2
Comment: "."
EndChar

StartChar: sh_ske
Encoding: 300 -1 44
Width: 574
VWidth: 0
Flags: HW
LayerCount: 2
Comment: "."
EndChar

StartChar: sh_spe
Encoding: 301 -1 45
Width: 574
VWidth: 0
Flags: HW
LayerCount: 2
Comment: "."
EndChar

StartChar: sh_sthe
Encoding: 302 -1 46
Width: 574
VWidth: 0
Flags: HW
LayerCount: 2
Comment: "."
EndChar

StartChar: sh_sshe
Encoding: 303 -1 47
Width: 574
VWidth: 0
Flags: HW
LayerCount: 2
Comment: "."
EndChar

StartChar: sh_sxe
Encoding: 304 -1 48
Width: 574
VWidth: 0
Flags: HW
LayerCount: 2
Comment: "."
EndChar

StartChar: sh_sre
Encoding: 305 -1 49
Width: 574
VWidth: 0
Flags: HW
LayerCount: 2
Comment: "."
EndChar

StartChar: sh_sle
Encoding: 306 -1 50
Width: 574
VWidth: 0
Flags: HW
LayerCount: 2
Comment: "."
EndChar

StartChar: sh_sne
Encoding: 307 -1 51
Width: 574
VWidth: 0
Flags: HW
LayerCount: 2
Comment: "."
EndChar

StartChar: sh_stre
Encoding: 308 -1 52
Width: 574
VWidth: 0
Flags: HW
LayerCount: 2
Comment: "."
EndChar

StartChar: sh_skre
Encoding: 309 -1 53
Width: 574
VWidth: 0
Flags: HW
LayerCount: 2
Comment: "."
EndChar

StartChar: sh_spre
Encoding: 310 -1 54
Width: 574
VWidth: 0
Flags: HW
LayerCount: 2
Comment: "."
EndChar

StartChar: sh_thre
Encoding: 311 -1 55
Width: 574
VWidth: 0
Flags: HW
LayerCount: 2
Comment: "."
EndChar

StartChar: sh_shre
Encoding: 312 -1 56
Width: 574
VWidth: 0
Flags: HW
LayerCount: 2
Comment: "."
EndChar

StartChar: sh_xre
Encoding: 313 -1 57
Width: 574
VWidth: 0
Flags: HW
LayerCount: 2
Comment: "."
EndChar

StartChar: sh_thle
Encoding: 314 -1 58
Width: 574
VWidth: 0
Flags: HW
LayerCount: 2
Comment: "."
EndChar

StartChar: sh_shle
Encoding: 315 -1 59
Width: 574
VWidth: 0
Flags: HW
LayerCount: 2
Comment: "."
EndChar

StartChar: sh_xle
Encoding: 316 -1 60
Width: 574
VWidth: 0
Flags: HW
LayerCount: 2
Comment: "."
EndChar

StartChar: sh_fe
Encoding: 317 -1 61
Width: 574
VWidth: 0
Flags: HW
LayerCount: 2
Comment: "."
EndChar

StartChar: sh_ye
Encoding: 318 -1 62
Width: 574
VWidth: 0
Flags: HW
LayerCount: 2
Comment: "."
EndChar

StartChar: sh_se
Encoding: 319 -1 63
Width: 574
VWidth: 0
Flags: HW
LayerCount: 2
Comment: "."
EndChar

StartChar: sh_me
Encoding: 320 -1 64
Width: 574
VWidth: 0
Flags: HW
LayerCount: 2
Comment: "."
EndChar

StartChar: sh_we
Encoding: 321 -1 65
Width: 574
VWidth: 0
Flags: HW
LayerCount: 2
Comment: "."
EndChar

StartChar: sh_he
Encoding: 322 -1 66
Width: 574
VWidth: 0
Flags: HW
LayerCount: 2
Comment: "."
EndChar

StartChar: sh_ta
Encoding: 323 -1 67
Width: 574
VWidth: 0
Flags: HW
LayerCount: 2
Comment: "."
EndChar

StartChar: sh_ka
Encoding: 324 -1 68
Width: 574
VWidth: 0
Flags: HW
LayerCount: 2
Comment: "."
EndChar

StartChar: sh_pa
Encoding: 325 -1 69
Width: 574
VWidth: 0
Flags: HW
LayerCount: 2
Comment: "."
EndChar

StartChar: sh_tha
Encoding: 326 -1 70
Width: 574
VWidth: 0
Flags: HW
LayerCount: 2
Comment: "."
EndChar

StartChar: sh_sha
Encoding: 327 -1 71
Width: 574
VWidth: 0
Flags: HW
LayerCount: 2
Comment: "."
EndChar

StartChar: sh_xa
Encoding: 328 -1 72
Width: 574
VWidth: 0
Flags: HW
LayerCount: 2
Comment: "."
EndChar

StartChar: sh_ra
Encoding: 329 -1 73
Width: 574
VWidth: 0
Flags: HW
LayerCount: 2
Comment: "."
EndChar

StartChar: sh_la
Encoding: 330 -1 74
Width: 574
VWidth: 0
Flags: HW
LayerCount: 2
Comment: "."
EndChar

StartChar: sh_na
Encoding: 331 -1 75
Width: 574
VWidth: 0
Flags: HW
LayerCount: 2
Comment: "."
EndChar

StartChar: sh_sta
Encoding: 332 -1 76
Width: 574
VWidth: 0
Flags: HW
LayerCount: 2
Comment: "."
EndChar

StartChar: sh_ska
Encoding: 333 -1 77
Width: 574
VWidth: 0
Flags: HW
LayerCount: 2
Comment: "."
EndChar

StartChar: sh_spa
Encoding: 334 -1 78
Width: 574
VWidth: 0
Flags: HW
LayerCount: 2
Comment: "."
EndChar

StartChar: sh_stha
Encoding: 335 -1 79
Width: 574
VWidth: 0
Flags: HW
LayerCount: 2
Comment: "."
EndChar

StartChar: sh_ssha
Encoding: 336 -1 80
Width: 574
VWidth: 0
Flags: HW
LayerCount: 2
Comment: "."
EndChar

StartChar: sh_sxa
Encoding: 337 -1 81
Width: 574
VWidth: 0
Flags: HW
LayerCount: 2
Comment: "."
EndChar

StartChar: sh_sra
Encoding: 338 -1 82
Width: 574
VWidth: 0
Flags: HW
LayerCount: 2
Comment: "."
EndChar

StartChar: sh_sla
Encoding: 339 -1 83
Width: 574
VWidth: 0
Flags: HW
LayerCount: 2
Comment: "."
EndChar

StartChar: sh_sna
Encoding: 340 -1 84
Width: 574
VWidth: 0
Flags: HW
LayerCount: 2
Comment: "."
EndChar

StartChar: sh_stra
Encoding: 341 -1 85
Width: 574
VWidth: 0
Flags: HW
LayerCount: 2
Comment: "."
EndChar

StartChar: sh_skra
Encoding: 342 -1 86
Width: 574
VWidth: 0
Flags: HW
LayerCount: 2
Comment: "."
EndChar

StartChar: sh_spra
Encoding: 343 -1 87
Width: 574
VWidth: 0
Flags: HW
LayerCount: 2
Comment: "."
EndChar

StartChar: sh_thra
Encoding: 344 -1 88
Width: 574
VWidth: 0
Flags: HW
LayerCount: 2
Comment: "."
EndChar

StartChar: sh_shra
Encoding: 345 -1 89
Width: 574
VWidth: 0
Flags: HW
LayerCount: 2
Comment: "."
EndChar

StartChar: sh_xra
Encoding: 346 -1 90
Width: 574
VWidth: 0
Flags: HW
LayerCount: 2
Comment: "."
EndChar

StartChar: sh_thla
Encoding: 347 -1 91
Width: 574
VWidth: 0
Flags: HW
LayerCount: 2
Comment: "."
EndChar

StartChar: sh_shla
Encoding: 348 -1 92
Width: 574
VWidth: 0
Flags: HW
LayerCount: 2
Comment: "."
EndChar

StartChar: sh_xla
Encoding: 349 -1 93
Width: 574
VWidth: 0
Flags: HW
LayerCount: 2
Comment: "."
EndChar

StartChar: sh_fa
Encoding: 350 -1 94
Width: 574
VWidth: 0
Flags: HW
LayerCount: 2
Comment: "."
EndChar

StartChar: sh_ya
Encoding: 351 -1 95
Width: 574
VWidth: 0
Flags: HW
LayerCount: 2
Comment: "."
EndChar

StartChar: sh_sa
Encoding: 352 -1 96
Width: 574
VWidth: 0
Flags: HW
LayerCount: 2
Comment: "."
EndChar

StartChar: sh_ma
Encoding: 353 -1 97
Width: 574
VWidth: 0
Flags: HW
LayerCount: 2
Comment: "."
EndChar

StartChar: sh_wa
Encoding: 354 -1 98
Width: 574
VWidth: 0
Flags: HW
LayerCount: 2
Comment: "."
EndChar

StartChar: sh_ha
Encoding: 355 -1 99
Width: 574
VWidth: 0
Flags: HW
LayerCount: 2
Comment: "."
EndChar

StartChar: sh_to
Encoding: 356 -1 100
Width: 574
VWidth: 0
Flags: HW
LayerCount: 2
Comment: "."
EndChar

StartChar: sh_ko
Encoding: 357 -1 101
Width: 574
VWidth: 0
Flags: HW
LayerCount: 2
Comment: "."
EndChar

StartChar: sh_po
Encoding: 358 -1 102
Width: 574
VWidth: 0
Flags: HW
LayerCount: 2
Comment: "."
EndChar

StartChar: sh_tho
Encoding: 359 -1 103
Width: 574
VWidth: 0
Flags: HW
LayerCount: 2
Comment: "."
EndChar

StartChar: sh_sho
Encoding: 360 -1 104
Width: 574
VWidth: 0
Flags: HW
LayerCount: 2
Comment: "."
EndChar

StartChar: sh_xo
Encoding: 361 -1 105
Width: 574
VWidth: 0
Flags: HW
LayerCount: 2
Comment: "."
EndChar

StartChar: sh_ro
Encoding: 362 -1 106
Width: 574
VWidth: 0
Flags: HW
LayerCount: 2
Comment: "."
EndChar

StartChar: sh_lo
Encoding: 363 -1 107
Width: 574
VWidth: 0
Flags: HW
LayerCount: 2
Comment: "."
EndChar

StartChar: sh_no
Encoding: 364 -1 108
Width: 574
VWidth: 0
Flags: HW
LayerCount: 2
Comment: "."
EndChar

StartChar: sh_sto
Encoding: 365 -1 109
Width: 574
VWidth: 0
Flags: HW
LayerCount: 2
Comment: "."
EndChar

StartChar: sh_sko
Encoding: 366 -1 110
Width: 574
VWidth: 0
Flags: HW
LayerCount: 2
Comment: "."
EndChar

StartChar: sh_spo
Encoding: 367 -1 111
Width: 574
VWidth: 0
Flags: HW
LayerCount: 2
Comment: "."
EndChar

StartChar: sh_stho
Encoding: 368 -1 112
Width: 574
VWidth: 0
Flags: HW
LayerCount: 2
Comment: "."
EndChar

StartChar: sh_ssho
Encoding: 369 -1 113
Width: 574
VWidth: 0
Flags: HW
LayerCount: 2
Comment: "."
EndChar

StartChar: sh_sxo
Encoding: 370 -1 114
Width: 574
VWidth: 0
Flags: HW
LayerCount: 2
Comment: "."
EndChar

StartChar: sh_sro
Encoding: 371 -1 115
Width: 574
VWidth: 0
Flags: HW
LayerCount: 2
Comment: "."
EndChar

StartChar: sh_slo
Encoding: 372 -1 116
Width: 574
VWidth: 0
Flags: HW
LayerCount: 2
Comment: "."
EndChar

StartChar: sh_sno
Encoding: 373 -1 117
Width: 574
VWidth: 0
Flags: HW
LayerCount: 2
Comment: "."
EndChar

StartChar: sh_stro
Encoding: 374 -1 118
Width: 574
VWidth: 0
Flags: HW
LayerCount: 2
Comment: "."
EndChar

StartChar: sh_skro
Encoding: 375 -1 119
Width: 574
VWidth: 0
Flags: HW
LayerCount: 2
Comment: "."
EndChar

StartChar: sh_spro
Encoding: 376 -1 120
Width: 574
VWidth: 0
Flags: HW
LayerCount: 2
Comment: "."
EndChar

StartChar: sh_thro
Encoding: 377 -1 121
Width: 574
VWidth: 0
Flags: HW
LayerCount: 2
Comment: "."
EndChar

StartChar: sh_shro
Encoding: 378 -1 122
Width: 574
VWidth: 0
Flags: HW
LayerCount: 2
Comment: "."
EndChar

StartChar: sh_xro
Encoding: 379 -1 123
Width: 574
VWidth: 0
Flags: HW
LayerCount: 2
Comment: "."
EndChar

StartChar: sh_thlo
Encoding: 380 -1 124
Width: 574
VWidth: 0
Flags: HW
LayerCount: 2
Comment: "."
EndChar

StartChar: sh_shlo
Encoding: 381 -1 125
Width: 574
VWidth: 0
Flags: HW
LayerCount: 2
Comment: "."
EndChar

StartChar: sh_xlo
Encoding: 382 -1 126
Width: 574
VWidth: 0
Flags: HW
LayerCount: 2
Comment: "."
EndChar

StartChar: sh_fo
Encoding: 383 -1 127
Width: 574
VWidth: 0
Flags: HW
LayerCount: 2
Comment: "."
EndChar

StartChar: sh_yo
Encoding: 384 -1 128
Width: 574
VWidth: 0
Flags: HW
LayerCount: 2
Comment: "."
EndChar

StartChar: sh_so
Encoding: 385 -1 129
Width: 574
VWidth: 0
Flags: HW
LayerCount: 2
Comment: "."
EndChar

StartChar: sh_mo
Encoding: 386 -1 130
Width: 574
VWidth: 0
Flags: HW
LayerCount: 2
Comment: "."
EndChar

StartChar: sh_wo
Encoding: 387 -1 131
Width: 574
VWidth: 0
Flags: HW
LayerCount: 2
Comment: "."
EndChar

StartChar: sh_ho
Encoding: 388 -1 132
Width: 574
VWidth: 0
Flags: HW
LayerCount: 2
Comment: "."
EndChar

StartChar: sh_tu
Encoding: 389 -1 133
Width: 574
VWidth: 0
Flags: HW
LayerCount: 2
Comment: "."
EndChar

StartChar: sh_ku
Encoding: 390 -1 134
Width: 574
VWidth: 0
Flags: HW
LayerCount: 2
Comment: "."
EndChar

StartChar: sh_pu
Encoding: 391 -1 135
Width: 574
VWidth: 0
Flags: HW
LayerCount: 2
Comment: "."
EndChar

StartChar: sh_thu
Encoding: 392 -1 136
Width: 574
VWidth: 0
Flags: HW
LayerCount: 2
Comment: "."
EndChar

StartChar: sh_shu
Encoding: 393 -1 137
Width: 574
VWidth: 0
Flags: HW
LayerCount: 2
Comment: "."
EndChar

StartChar: sh_xu
Encoding: 394 -1 138
Width: 574
VWidth: 0
Flags: HW
LayerCount: 2
Comment: "."
EndChar

StartChar: sh_ru
Encoding: 395 -1 139
Width: 574
VWidth: 0
Flags: HW
LayerCount: 2
Comment: "."
EndChar

StartChar: sh_lu
Encoding: 396 -1 140
Width: 574
VWidth: 0
Flags: HW
LayerCount: 2
Comment: "."
EndChar

StartChar: sh_nu
Encoding: 397 -1 141
Width: 574
VWidth: 0
Flags: HW
LayerCount: 2
Comment: "."
EndChar

StartChar: sh_stu
Encoding: 398 -1 142
Width: 574
VWidth: 0
Flags: HW
LayerCount: 2
Comment: "."
EndChar

StartChar: sh_sku
Encoding: 399 -1 143
Width: 574
VWidth: 0
Flags: HW
LayerCount: 2
Comment: "."
EndChar

StartChar: sh_spu
Encoding: 400 -1 144
Width: 574
VWidth: 0
Flags: HW
LayerCount: 2
Comment: "."
EndChar

StartChar: sh_sthu
Encoding: 401 -1 145
Width: 574
VWidth: 0
Flags: HW
LayerCount: 2
Comment: "."
EndChar

StartChar: sh_sshu
Encoding: 402 -1 146
Width: 574
VWidth: 0
Flags: HW
LayerCount: 2
Comment: "."
EndChar

StartChar: sh_sxu
Encoding: 403 -1 147
Width: 574
VWidth: 0
Flags: HW
LayerCount: 2
Comment: "."
EndChar

StartChar: sh_sru
Encoding: 404 -1 148
Width: 574
VWidth: 0
Flags: HW
LayerCount: 2
Comment: "."
EndChar

StartChar: sh_slu
Encoding: 405 -1 149
Width: 574
VWidth: 0
Flags: HW
LayerCount: 2
Comment: "."
EndChar

StartChar: sh_snu
Encoding: 406 -1 150
Width: 574
VWidth: 0
Flags: HW
LayerCount: 2
Comment: "."
EndChar

StartChar: sh_stru
Encoding: 407 -1 151
Width: 574
VWidth: 0
Flags: HW
LayerCount: 2
Comment: "."
EndChar

StartChar: sh_skru
Encoding: 408 -1 152
Width: 574
VWidth: 0
Flags: HW
LayerCount: 2
Comment: "."
EndChar

StartChar: sh_spru
Encoding: 409 -1 153
Width: 574
VWidth: 0
Flags: HW
LayerCount: 2
Comment: "."
EndChar

StartChar: sh_thru
Encoding: 410 -1 154
Width: 574
VWidth: 0
Flags: HW
LayerCount: 2
Comment: "."
EndChar

StartChar: sh_shru
Encoding: 411 -1 155
Width: 574
VWidth: 0
Flags: HW
LayerCount: 2
Comment: "."
EndChar

StartChar: sh_xru
Encoding: 412 -1 156
Width: 574
VWidth: 0
Flags: HW
LayerCount: 2
Comment: "."
EndChar

StartChar: sh_thlu
Encoding: 413 -1 157
Width: 574
VWidth: 0
Flags: HW
LayerCount: 2
Comment: "."
EndChar

StartChar: sh_shlu
Encoding: 414 -1 158
Width: 574
VWidth: 0
Flags: HW
LayerCount: 2
Comment: "."
EndChar

StartChar: sh_xlu
Encoding: 415 -1 159
Width: 574
VWidth: 0
Flags: HW
LayerCount: 2
Comment: "."
EndChar

StartChar: sh_fu
Encoding: 416 -1 160
Width: 574
VWidth: 0
Flags: HW
LayerCount: 2
Comment: "."
EndChar

StartChar: sh_yu
Encoding: 417 -1 161
Width: 574
VWidth: 0
Flags: HW
LayerCount: 2
Comment: "."
EndChar

StartChar: sh_su
Encoding: 418 -1 162
Width: 574
VWidth: 0
Flags: HW
LayerCount: 2
Comment: "."
EndChar

StartChar: sh_mu
Encoding: 419 -1 163
Width: 574
VWidth: 0
Flags: HW
LayerCount: 2
Comment: "."
EndChar

StartChar: sh_wu
Encoding: 420 -1 164
Width: 574
VWidth: 0
Flags: HW
LayerCount: 2
Comment: "."
EndChar

StartChar: sh_hu
Encoding: 421 -1 165
Width: 574
VWidth: 0
Flags: HW
LayerCount: 2
Comment: "."
EndChar

StartChar: sh_i
Encoding: 422 105 166
Width: 574
Flags: HW
LayerCount: 2
Fore
SplineSet
246 614 m 1
 246 614 246 614 328 614 c 1
 324.666666667 580 317.666666667 512 307 410 c 1
 307 410 307 410 266 410 c 1
 266 410 266 410 246 614 c 1
EndSplineSet
Comment: "."
EndChar

StartChar: sh_e
Encoding: 423 101 167
Width: 574
Flags: HW
LayerCount: 2
Fore
SplineSet
205 594 m 1
 205 594 205 594 266 594 c 1
 266 594 266 594 246 430 c 1
 246 430 246 430 225 430 c 1
 225 430 225 430 205 594 c 1
348 430 m 1
 348 430 348 430 328 430 c 1
 324.666666667 457.333333333 317.666666667 512 307 594 c 1
 307 594 307 594 369 594 c 1
 365.666666667 566.666666667 358.666666667 512 348 430 c 1
EndSplineSet
Comment: "."
EndChar

StartChar: sh_a
Encoding: 424 97 168
Width: 574
Flags: HW
LayerCount: 2
Fore
SplineSet
410 532 m 1
 410 532 410 532 410 492 c 1
 410 492 410 492 164 492 c 1
 164 492 164 492 164 532 c 1
 164 532 164 532 410 532 c 1
EndSplineSet
Comment: "."
EndChar

StartChar: sh_o
Encoding: 425 111 169
Width: 574
Flags: HW
LayerCount: 2
Fore
SplineSet
205 594 m 1
 205 594 205 594 266 594 c 1
 266 594 266 594 246 430 c 1
 246 430 246 430 225 430 c 1
 225 430 225 430 205 594 c 1
348 430 m 1
 348 430 348 430 328 430 c 1
 324.666666667 457.333333333 317.666666667 512 307 594 c 1
 307 594 307 594 369 594 c 1
 365.666666667 566.666666667 358.666666667 512 348 430 c 1
410 532 m 1
 410 492 l 1
 164 492 l 1
 164 532 l 1
 410 532 l 1
EndSplineSet
Comment: "."
EndChar

StartChar: sh_u
Encoding: 426 117 170
Width: 574
Flags: HW
LayerCount: 2
Fore
SplineSet
246 614 m 1
 246 614 246 614 328 614 c 1
 324.666666667 580 317.666666667 512 307 410 c 1
 307 410 307 410 266 410 c 1
 266 410 266 410 246 614 c 1
410 532 m 1
 410 492 l 1
 164 492 l 1
 164 532 l 1
 410 532 l 1
EndSplineSet
Comment: "."
EndChar

StartChar: sh_t
Encoding: 427 116 171
Width: 574
Flags: HW
LayerCount: 2
Fore
SplineSet
82 512 m 1
 82 512 82 512 0 512 c 1
 48 549.333333333 143.666666667 624.333333333 287 737 c 1
 334.333333333 699.666666667 429.666666667 624.666666667 573 512 c 1
 573 512 573 512 492 512 c 1
 457.333333333 539.333333333 389 594 287 676 c 1
 253 648.666666667 184.666666667 594 82 512 c 1
573 512 m 1
 525.666666667 426.666666667 430.333333333 256 287 0 c 1
 321 85.3333333333 389.333333333 256 492 512 c 1
 573 512 l 1
EndSplineSet
Comment: "."
EndChar

StartChar: sh_k
Encoding: 428 107 172
Width: 574
Flags: HW
LayerCount: 2
Fore
SplineSet
82 512 m 1
 116 426.666666667 184.333333333 256 287 0 c 1
 239 85.3333333333 143.333333333 256 0 512 c 1
 0 512 0 512 82 512 c 1
82 512 m 1
 0 512 l 1
 48 549.333333333 143.666666667 624.333333333 287 737 c 1
 334.333333333 699.666666667 429.666666667 624.666666667 573 512 c 1
 492 512 l 1
 457.333333333 539.333333333 389 594 287 676 c 1
 253 648.666666667 184.666666667 594 82 512 c 1
EndSplineSet
Comment: "."
EndChar

StartChar: sh_p
Encoding: 429 112 173
Width: 574
Flags: HW
LayerCount: 2
Fore
SplineSet
573 512 m 1
 525.666666667 426.666666667 430.333333333 256 287 0 c 1
 321 85.3333333333 389.333333333 256 492 512 c 1
 492 512 492 512 573 512 c 1
82 512 m 1
 0 512 l 1
 48 549.333333333 143.666666667 624.333333333 287 737 c 1
 334.333333333 699.666666667 429.666666667 624.666666667 573 512 c 1
 492 512 l 1
 457.333333333 539.333333333 389 594 287 676 c 1
 253 648.666666667 184.666666667 594 82 512 c 1
82 512 m 1
 116 426.666666667 184.333333333 256 287 0 c 1
 239 85.3333333333 143.333333333 256 0 512 c 1
 82 512 l 1
EndSplineSet
Comment: "."
EndChar

StartChar: sh_th
Encoding: 430 -1 174
Width: 0
Flags: HW
LayerCount: 2
Fore
SplineSet
430 225 m 1
 430 225 430 225 512 225 c 1
 498.666666667 197.666666667 471.333333333 143 430 61 c 1
 430 61 430 61 430 102 c 2
 430 102 430 102 430 225 c 1
82 512 m 1
 0 512 l 1
 48 549.333333333 143.666666667 624.333333333 287 737 c 1
 334.333333333 699.666666667 429.666666667 624.666666667 573 512 c 1
 492 512 l 1
 457.333333333 539.333333333 389 594 287 676 c 1
 253 648.666666667 184.666666667 594 82 512 c 1
573 512 m 1
 525.666666667 426.666666667 430.333333333 256 287 0 c 1
 321 85.3333333333 389.333333333 256 492 512 c 1
 573 512 l 1
EndSplineSet
Comment: "."
EndChar

StartChar: sh_sh
Encoding: 431 -1 175
Width: 0
Flags: HW
LayerCount: 2
Fore
SplineSet
82 512 m 1
 82 512 82 512 0 512 c 1
 48 549.333333333 143.666666667 624.333333333 287 737 c 1
 334.333333333 699.666666667 429.666666667 624.666666667 573 512 c 1
 573 512 573 512 492 512 c 1
 457.333333333 539.333333333 389 594 287 676 c 1
 253 648.666666667 184.666666667 594 82 512 c 1
82 512 m 1
 116 426.666666667 184.333333333 256 287 0 c 1
 239 85.3333333333 143.333333333 256 0 512 c 1
 82 512 l 1
61 225 m 1
 143 225 l 1
 143 61 l 1
 129.666666667 88.3333333333 102.333333333 143 61 225 c 1
EndSplineSet
Comment: "."
EndChar

StartChar: sh_x
Encoding: 432 120 176
Width: 574
Flags: HW
LayerCount: 2
Fore
SplineSet
430 225 m 1
 430 225 430 225 512 225 c 1
 498.666666667 197.666666667 471.333333333 143 430 61 c 1
 430 61 430 61 430 102 c 2
 430 102 430 102 430 225 c 1
61 225 m 1
 143 225 l 1
 143 61 l 1
 129.666666667 88.3333333333 102.333333333 143 61 225 c 1
82 512 m 1
 0 512 l 1
 48 549.333333333 143.666666667 624.333333333 287 737 c 1
 334.333333333 699.666666667 429.666666667 624.666666667 573 512 c 1
 492 512 l 1
 457.333333333 539.333333333 389 594 287 676 c 1
 253 648.666666667 184.666666667 594 82 512 c 1
573 512 m 1
 525.666666667 426.666666667 430.333333333 256 287 0 c 1
 321 85.3333333333 389.333333333 256 492 512 c 1
 573 512 l 1
82 512 m 1
 116 426.666666667 184.333333333 256 287 0 c 1
 239 85.3333333333 143.333333333 256 0 512 c 1
 82 512 l 1
EndSplineSet
Comment: "."
EndChar

StartChar: sh_r
Encoding: 433 114 177
Width: 574
Flags: HW
LayerCount: 2
Fore
SplineSet
287 246 m 1
 287 246 287 246 492 246 c 1
 492 246 492 246 492 205 c 1
 492 205 492 205 287 205 c 1
 287 205 287 205 287 233 c 2
 287 233 287 233 287 246 c 1
82 512 m 1
 0 512 l 1
 48 549.333333333 143.666666667 624.333333333 287 737 c 1
 334.333333333 699.666666667 429.666666667 624.666666667 573 512 c 1
 492 512 l 1
 457.333333333 539.333333333 389 594 287 676 c 1
 253 648.666666667 184.666666667 594 82 512 c 1
573 512 m 1
 525.666666667 426.666666667 430.333333333 256 287 0 c 1
 321 85.3333333333 389.333333333 256 492 512 c 1
 573 512 l 1
EndSplineSet
Comment: "."
EndChar

StartChar: sh_l
Encoding: 434 108 178
Width: 574
Flags: HW
LayerCount: 2
Fore
SplineSet
82 246 m 1
 82 246 82 246 287 246 c 1
 287 246 287 246 287 211 c 2
 287 211 287 211 287 205 c 1
 287 205 287 205 82 205 c 1
 82 205 82 205 82 246 c 1
82 512 m 1
 0 512 l 1
 48 549.333333333 143.666666667 624.333333333 287 737 c 1
 334.333333333 699.666666667 429.666666667 624.666666667 573 512 c 1
 492 512 l 1
 457.333333333 539.333333333 389 594 287 676 c 1
 253 648.666666667 184.666666667 594 82 512 c 1
82 512 m 1
 116 426.666666667 184.333333333 256 287 0 c 1
 239 85.3333333333 143.333333333 256 0 512 c 1
 82 512 l 1
EndSplineSet
Comment: "."
EndChar

StartChar: sh_n
Encoding: 435 110 179
Width: 574
Flags: HW
LayerCount: 2
Fore
SplineSet
277 246 m 5
 277 246 277 246 482 246 c 5
 482 246 482 246 482 205 c 5
 482 205 482 205 277 205 c 5
 277 205 277 205 277 233 c 6
 277 233 277 233 277 246 c 5
72 246 m 5
 277 246 l 5
 277 211 l 5
 277 205 l 5
 72 205 l 5
 72 246 l 5
72 512 m 1
 -10 512 l 1
 38 549.333333333 133.666666667 624.333333333 277 737 c 1
 324.333333333 699.666666667 419.666666667 624.666666667 563 512 c 1
 482 512 l 1
 447.333333333 539.333333333 379 594 277 676 c 1
 243 648.666666667 174.666666667 594 72 512 c 1
563 512 m 1
 515.666666667 426.666666667 420.333333333 256 277 0 c 1
 311 85.3333333333 379.333333333 256 482 512 c 1
 563 512 l 1
72 512 m 1
 106 426.666666667 174.333333333 256 277 0 c 1
 229 85.3333333333 133.333333333 256 -10 512 c 1
 72 512 l 1
EndSplineSet
Comment: "."
EndChar

StartChar: sh_st
Encoding: 436 -1 180
Width: 0
Flags: HW
LayerCount: 2
Fore
SplineSet
287 369 m 1
 321 392.333333333 389.333333333 440 492 512 c 1
 492 512 492 512 573 512 c 1
 525.666666667 478 430.333333333 409.666666667 287 307 c 1
 239 341 143.333333333 409.333333333 0 512 c 1
 0 512 0 512 82 512 c 1
 116 488 184.333333333 440.333333333 287 369 c 1
573 512 m 1
 525.666666667 426.666666667 430.333333333 256 287 0 c 1
 321 85.3333333333 389.333333333 256 492 512 c 1
 573 512 l 1
EndSplineSet
Comment: "."
EndChar

StartChar: sh_sk
Encoding: 437 -1 181
Width: 0
Flags: HW
LayerCount: 2
Fore
SplineSet
287 369 m 1
 321 392.333333333 389.333333333 440 492 512 c 1
 492 512 492 512 573 512 c 1
 525.666666667 478 430.333333333 409.666666667 287 307 c 1
 239 341 143.333333333 409.333333333 0 512 c 1
 0 512 0 512 82 512 c 1
 116 488 184.333333333 440.333333333 287 369 c 1
82 512 m 1
 116 426.666666667 184.333333333 256 287 0 c 1
 239 85.3333333333 143.333333333 256 0 512 c 1
 82 512 l 1
EndSplineSet
Comment: "."
EndChar

StartChar: sh_sp
Encoding: 438 -1 182
Width: 0
Flags: HW
LayerCount: 2
Fore
SplineSet
573 512 m 1
 525.666666667 426.666666667 430.333333333 256 287 0 c 1
 321 85.3333333333 389.333333333 256 492 512 c 1
 492 512 492 512 573 512 c 1
82 512 m 1
 116 426.666666667 184.333333333 256 287 0 c 1
 239 85.3333333333 143.333333333 256 0 512 c 1
 82 512 l 1
287 369 m 1
 321 392.333333333 389.333333333 440 492 512 c 1
 573 512 l 1
 525.666666667 478 430.333333333 409.666666667 287 307 c 1
 239 341 143.333333333 409.333333333 0 512 c 1
 82 512 l 1
 116 488 184.333333333 440.333333333 287 369 c 1
EndSplineSet
Comment: "."
EndChar

StartChar: sh_sth
Encoding: 439 -1 183
Width: 0
Flags: HW
LayerCount: 2
Fore
SplineSet
430 225 m 1
 430 225 430 225 512 225 c 1
 498.666666667 197.666666667 471.333333333 143 430 61 c 1
 430 61 430 61 430 102 c 2
 430 102 430 102 430 225 c 1
287 369 m 1
 321 392.333333333 389.333333333 440 492 512 c 1
 573 512 l 1
 525.666666667 478 430.333333333 409.666666667 287 307 c 1
 239 341 143.333333333 409.333333333 0 512 c 1
 82 512 l 1
 116 488 184.333333333 440.333333333 287 369 c 1
573 512 m 1
 525.666666667 426.666666667 430.333333333 256 287 0 c 1
 321 85.3333333333 389.333333333 256 492 512 c 1
 573 512 l 1
EndSplineSet
Comment: "."
EndChar

StartChar: sh_ssh
Encoding: 440 -1 184
Width: 0
Flags: HW
LayerCount: 2
Fore
SplineSet
61 225 m 1
 61 225 61 225 143 225 c 1
 143 225 143 225 143 61 c 1
 129.666666667 88.3333333333 102.333333333 143 61 225 c 1
287 369 m 1
 321 392.333333333 389.333333333 440 492 512 c 1
 573 512 l 1
 525.666666667 478 430.333333333 409.666666667 287 307 c 1
 239 341 143.333333333 409.333333333 0 512 c 1
 82 512 l 1
 116 488 184.333333333 440.333333333 287 369 c 1
82 512 m 1
 116 426.666666667 184.333333333 256 287 0 c 1
 239 85.3333333333 143.333333333 256 0 512 c 1
 82 512 l 1
EndSplineSet
Comment: "."
EndChar

StartChar: sh_sx
Encoding: 441 -1 185
Width: 0
Flags: HW
LayerCount: 2
Fore
SplineSet
430 225 m 1
 430 225 430 225 512 225 c 1
 498.666666667 197.666666667 471.333333333 143 430 61 c 1
 430 61 430 61 430 102 c 2
 430 102 430 102 430 225 c 1
61 225 m 1
 143 225 l 1
 143 61 l 1
 129.666666667 88.3333333333 102.333333333 143 61 225 c 1
287 369 m 1
 321 392.333333333 389.333333333 440 492 512 c 1
 573 512 l 1
 525.666666667 478 430.333333333 409.666666667 287 307 c 1
 239 341 143.333333333 409.333333333 0 512 c 1
 82 512 l 1
 116 488 184.333333333 440.333333333 287 369 c 1
82 512 m 1
 116 426.666666667 184.333333333 256 287 0 c 1
 239 85.3333333333 143.333333333 256 0 512 c 1
 82 512 l 1
573 512 m 1
 525.666666667 426.666666667 430.333333333 256 287 0 c 1
 321 85.3333333333 389.333333333 256 492 512 c 1
 573 512 l 1
EndSplineSet
Comment: "."
EndChar

StartChar: sh_sr
Encoding: 442 -1 186
Width: 0
Flags: HW
LayerCount: 2
Fore
SplineSet
287 246 m 1
 287 246 287 246 492 246 c 1
 492 246 492 246 492 205 c 1
 492 205 492 205 287 205 c 1
 287 205 287 205 287 233 c 2
 287 233 287 233 287 246 c 1
573 512 m 1
 525.666666667 426.666666667 430.333333333 256 287 0 c 1
 321 85.3333333333 389.333333333 256 492 512 c 1
 573 512 l 1
287 369 m 1
 321 392.333333333 389.333333333 440 492 512 c 1
 573 512 l 1
 525.666666667 478 430.333333333 409.666666667 287 307 c 1
 239 341 143.333333333 409.333333333 0 512 c 1
 82 512 l 1
 116 488 184.333333333 440.333333333 287 369 c 1
EndSplineSet
Comment: "."
EndChar

StartChar: sh_sl
Encoding: 443 -1 187
Width: 0
Flags: HW
LayerCount: 2
Fore
SplineSet
82 246 m 1
 82 246 82 246 287 246 c 1
 287 246 287 246 287 211 c 2
 287 211 287 211 287 205 c 1
 287 205 287 205 82 205 c 1
 82 205 82 205 82 246 c 1
82 512 m 1
 116 426.666666667 184.333333333 256 287 0 c 1
 239 85.3333333333 143.333333333 256 0 512 c 1
 82 512 l 1
287 369 m 1
 321 392.333333333 389.333333333 440 492 512 c 1
 573 512 l 1
 525.666666667 478 430.333333333 409.666666667 287 307 c 1
 239 341 143.333333333 409.333333333 0 512 c 1
 82 512 l 1
 116 488 184.333333333 440.333333333 287 369 c 1
EndSplineSet
Comment: "."
EndChar

StartChar: sh_sn
Encoding: 444 -1 188
Width: 0
Flags: HW
LayerCount: 2
Fore
SplineSet
287 246 m 1
 287 246 287 246 492 246 c 1
 492 246 492 246 492 205 c 1
 492 205 492 205 287 205 c 1
 287 205 287 205 287 233 c 2
 287 233 287 233 287 246 c 1
82 246 m 1
 287 246 l 1
 287 211 l 1
 287 205 l 1
 82 205 l 1
 82 246 l 1
573 512 m 1
 525.666666667 426.666666667 430.333333333 256 287 0 c 1
 321 85.3333333333 389.333333333 256 492 512 c 1
 573 512 l 1
82 512 m 1
 116 426.666666667 184.333333333 256 287 0 c 1
 239 85.3333333333 143.333333333 256 0 512 c 1
 82 512 l 1
287 369 m 1
 321 392.333333333 389.333333333 440 492 512 c 1
 573 512 l 1
 525.666666667 478 430.333333333 409.666666667 287 307 c 1
 239 341 143.333333333 409.333333333 0 512 c 1
 82 512 l 1
 116 488 184.333333333 440.333333333 287 369 c 1
EndSplineSet
Comment: "."
EndChar

StartChar: sh_str
Encoding: 445 -1 189
Width: 0
Flags: HW
LayerCount: 2
Fore
SplineSet
573 512 m 1
 525.666666667 426.666666667 430.333333333 256 287 0 c 1
 321 85.3333333333 389.333333333 256 492 512 c 1
 492 512 492 512 573 512 c 1
287 348 m 1
 321 375.333333333 389.333333333 430 492 512 c 1
 573 512 l 1
 525.666666667 474.666666667 430.333333333 399.666666667 287 287 c 1
 239 324.333333333 143.333333333 399.333333333 0 512 c 1
 82 512 l 1
 116 484.666666667 184.333333333 430 287 348 c 1
82 512 m 1
 0 512 l 1
 48 549.333333333 143.666666667 624.333333333 287 737 c 1
 334.333333333 699.666666667 429.666666667 624.666666667 573 512 c 1
 492 512 l 1
 457.333333333 539.333333333 389 594 287 676 c 1
 253 648.666666667 184.666666667 594 82 512 c 1
EndSplineSet
Comment: "."
EndChar

StartChar: sh_skr
Encoding: 446 -1 190
Width: 0
Flags: HW
LayerCount: 2
Fore
SplineSet
82 512 m 1
 116 426.666666667 184.333333333 256 287 0 c 1
 239 85.3333333333 143.333333333 256 0 512 c 1
 0 512 0 512 82 512 c 1
287 348 m 1
 321 375.333333333 389.333333333 430 492 512 c 1
 573 512 l 1
 525.666666667 474.666666667 430.333333333 399.666666667 287 287 c 1
 239 324.333333333 143.333333333 399.333333333 0 512 c 1
 82 512 l 1
 116 484.666666667 184.333333333 430 287 348 c 1
82 512 m 1
 0 512 l 1
 48 549.333333333 143.666666667 624.333333333 287 737 c 1
 334.333333333 699.666666667 429.666666667 624.666666667 573 512 c 1
 492 512 l 1
 457.333333333 539.333333333 389 594 287 676 c 1
 253 648.666666667 184.666666667 594 82 512 c 1
EndSplineSet
Comment: "."
EndChar

StartChar: sh_spr
Encoding: 447 -1 191
Width: 0
Flags: HW
LayerCount: 2
Fore
SplineSet
287 348 m 1
 321 375.333333333 389.333333333 430 492 512 c 1
 492 512 492 512 573 512 c 1
 525.666666667 474.666666667 430.333333333 399.666666667 287 287 c 1
 239 324.333333333 143.333333333 399.333333333 0 512 c 1
 0 512 0 512 82 512 c 1
 116 484.666666667 184.333333333 430 287 348 c 1
82 512 m 1
 82 512 82 512 0 512 c 1
 48 549.333333333 143.666666667 624.333333333 287 737 c 1
 334.333333333 699.666666667 429.666666667 624.666666667 573 512 c 1
 573 512 573 512 492 512 c 1
 457.333333333 539.333333333 389 594 287 676 c 1
 253 648.666666667 184.666666667 594 82 512 c 1
573 512 m 1
 525.666666667 426.666666667 430.333333333 256 287 0 c 1
 321 85.3333333333 389.333333333 256 492 512 c 1
 573 512 l 1
82 512 m 1
 116 426.666666667 184.333333333 256 287 0 c 1
 239 85.3333333333 143.333333333 256 0 512 c 1
 82 512 l 1
EndSplineSet
Comment: "."
EndChar

StartChar: sh_thr
Encoding: 448 -1 192
Width: 0
Flags: HW
LayerCount: 2
Fore
SplineSet
430 225 m 1
 430 225 430 225 512 225 c 1
 498.666666667 197.666666667 471.333333333 143 430 61 c 1
 430 61 430 61 430 102 c 2
 430 102 430 102 430 225 c 1
573 512 m 1
 525.666666667 426.666666667 430.333333333 256 287 0 c 1
 321 85.3333333333 389.333333333 256 492 512 c 1
 573 512 l 1
287 348 m 1
 321 375.333333333 389.333333333 430 492 512 c 1
 573 512 l 1
 525.666666667 474.666666667 430.333333333 399.666666667 287 287 c 1
 239 324.333333333 143.333333333 399.333333333 0 512 c 1
 82 512 l 1
 116 484.666666667 184.333333333 430 287 348 c 1
82 512 m 1
 0 512 l 1
 48 549.333333333 143.666666667 624.333333333 287 737 c 1
 334.333333333 699.666666667 429.666666667 624.666666667 573 512 c 1
 492 512 l 1
 457.333333333 539.333333333 389 594 287 676 c 1
 253 648.666666667 184.666666667 594 82 512 c 1
EndSplineSet
Comment: "."
EndChar

StartChar: sh_shr
Encoding: 449 -1 193
Width: 0
Flags: HW
LayerCount: 2
Fore
SplineSet
61 225 m 1
 61 225 61 225 143 225 c 1
 143 225 143 225 143 61 c 1
 129.666666667 88.3333333333 102.333333333 143 61 225 c 1
82 512 m 1
 116 426.666666667 184.333333333 256 287 0 c 1
 239 85.3333333333 143.333333333 256 0 512 c 1
 82 512 l 1
287 348 m 1
 321 375.333333333 389.333333333 430 492 512 c 1
 573 512 l 1
 525.666666667 474.666666667 430.333333333 399.666666667 287 287 c 1
 239 324.333333333 143.333333333 399.333333333 0 512 c 1
 82 512 l 1
 116 484.666666667 184.333333333 430 287 348 c 1
82 512 m 1
 0 512 l 1
 48 549.333333333 143.666666667 624.333333333 287 737 c 1
 334.333333333 699.666666667 429.666666667 624.666666667 573 512 c 1
 492 512 l 1
 457.333333333 539.333333333 389 594 287 676 c 1
 253 648.666666667 184.666666667 594 82 512 c 1
EndSplineSet
Comment: "."
EndChar

StartChar: sh_xr
Encoding: 450 -1 194
Width: 0
Flags: HW
LayerCount: 2
Fore
SplineSet
430 225 m 1
 430 225 430 225 512 225 c 1
 498.666666667 197.666666667 471.333333333 143 430 61 c 1
 430 61 430 61 430 102 c 2
 430 102 430 102 430 225 c 1
61 225 m 1
 143 225 l 1
 143 61 l 1
 129.666666667 88.3333333333 102.333333333 143 61 225 c 1
573 512 m 1
 525.666666667 426.666666667 430.333333333 256 287 0 c 1
 321 85.3333333333 389.333333333 256 492 512 c 1
 573 512 l 1
82 512 m 1
 116 426.666666667 184.333333333 256 287 0 c 1
 239 85.3333333333 143.333333333 256 0 512 c 1
 82 512 l 1
287 348 m 1
 321 375.333333333 389.333333333 430 492 512 c 1
 573 512 l 1
 525.666666667 474.666666667 430.333333333 399.666666667 287 287 c 1
 239 324.333333333 143.333333333 399.333333333 0 512 c 1
 82 512 l 1
 116 484.666666667 184.333333333 430 287 348 c 1
82 512 m 1
 0 512 l 1
 48 549.333333333 143.666666667 624.333333333 287 737 c 1
 334.333333333 699.666666667 429.666666667 624.666666667 573 512 c 1
 492 512 l 1
 457.333333333 539.333333333 389 594 287 676 c 1
 253 648.666666667 184.666666667 594 82 512 c 1
EndSplineSet
Comment: "."
EndChar

StartChar: sh_thl
Encoding: 451 -1 195
Width: 0
Flags: HW
LayerCount: 2
Fore
SplineSet
287 246 m 1
 287 246 287 246 492 246 c 1
 492 246 492 246 492 205 c 1
 492 205 492 205 287 205 c 1
 287 205 287 205 287 233 c 2
 287 233 287 233 287 246 c 1
573 512 m 1
 525.666666667 426.666666667 430.333333333 256 287 0 c 1
 321 85.3333333333 389.333333333 256 492 512 c 1
 573 512 l 1
287 348 m 1
 321 375.333333333 389.333333333 430 492 512 c 1
 573 512 l 1
 525.666666667 474.666666667 430.333333333 399.666666667 287 287 c 1
 239 324.333333333 143.333333333 399.333333333 0 512 c 1
 82 512 l 1
 116 484.666666667 184.333333333 430 287 348 c 1
82 512 m 1
 0 512 l 1
 48 549.333333333 143.666666667 624.333333333 287 737 c 1
 334.333333333 699.666666667 429.666666667 624.666666667 573 512 c 1
 492 512 l 1
 457.333333333 539.333333333 389 594 287 676 c 1
 253 648.666666667 184.666666667 594 82 512 c 1
EndSplineSet
Comment: "."
EndChar

StartChar: sh_shl
Encoding: 452 -1 196
Width: 574
Flags: HW
LayerCount: 2
Fore
SplineSet
82 246 m 1
 82 246 82 246 287 246 c 1
 287 246 287 246 287 211 c 2
 287 211 287 211 287 205 c 1
 287 205 287 205 82 205 c 1
 82 205 82 205 82 246 c 1
82 512 m 1
 116 426.666666667 184.333333333 256 287 0 c 1
 239 85.3333333333 143.333333333 256 0 512 c 1
 82 512 l 1
287 348 m 1
 321 375.333333333 389.333333333 430 492 512 c 1
 573 512 l 1
 525.666666667 474.666666667 430.333333333 399.666666667 287 287 c 1
 239 324.333333333 143.333333333 399.333333333 0 512 c 1
 82 512 l 1
 116 484.666666667 184.333333333 430 287 348 c 1
82 512 m 1
 0 512 l 1
 48 549.333333333 143.666666667 624.333333333 287 737 c 1
 334.333333333 699.666666667 429.666666667 624.666666667 573 512 c 1
 492 512 l 1
 457.333333333 539.333333333 389 594 287 676 c 1
 253 648.666666667 184.666666667 594 82 512 c 1
EndSplineSet
Comment: "."
EndChar

StartChar: sh_xl
Encoding: 453 -1 197
Width: 574
Flags: HW
LayerCount: 2
Fore
SplineSet
287 246 m 1
 287 246 287 246 492 246 c 1
 492 246 492 246 492 205 c 1
 492 205 492 205 287 205 c 1
 287 205 287 205 287 233 c 2
 287 233 287 233 287 246 c 1
82 246 m 1
 287 246 l 1
 287 211 l 1
 287 205 l 1
 82 205 l 1
 82 246 l 1
287 348 m 1
 321 375.333333333 389.333333333 430 492 512 c 1
 573 512 l 1
 525.666666667 474.666666667 430.333333333 399.666666667 287 287 c 1
 239 324.333333333 143.333333333 399.333333333 0 512 c 1
 82 512 l 1
 116 484.666666667 184.333333333 430 287 348 c 1
82 512 m 1
 0 512 l 1
 48 549.333333333 143.666666667 624.333333333 287 737 c 1
 334.333333333 699.666666667 429.666666667 624.666666667 573 512 c 1
 492 512 l 1
 457.333333333 539.333333333 389 594 287 676 c 1
 253 648.666666667 184.666666667 594 82 512 c 1
573 512 m 1
 525.666666667 426.666666667 430.333333333 256 287 0 c 1
 321 85.3333333333 389.333333333 256 492 512 c 1
 573 512 l 1
82 512 m 1
 116 426.666666667 184.333333333 256 287 0 c 1
 239 85.3333333333 143.333333333 256 0 512 c 1
 82 512 l 1
EndSplineSet
Ligature2: "'liga' Standard Ligatures in Latin lookup 0-1" sh_x sh_l
Ligature2: "'liga' Standard Ligatures in Latin lookup 0-1" sh_l sh_x
Comment: "."
EndChar

StartChar: sh_f
Encoding: 454 102 198
Width: 574
Flags: HW
LayerCount: 2
Fore
SplineSet
82 512 m 1
 82 512 82 512 0 512 c 1
 48 549.333333333 143.666666667 624.333333333 287 737 c 1
 334.333333333 699.666666667 429.666666667 624.666666667 573 512 c 1
 573 512 573 512 492 512 c 1
 457.333333333 539.333333333 389 594 287 676 c 1
 253 648.666666667 184.666666667 594 82 512 c 1
EndSplineSet
Comment: "."
EndChar

StartChar: sh_y
Encoding: 455 121 199
Width: 574
Flags: HW
LayerCount: 2
Fore
SplineSet
287 369 m 1
 321 392.333333333 389.333333333 440 492 512 c 1
 492 512 492 512 573 512 c 1
 525.666666667 478 430.333333333 409.666666667 287 307 c 1
 239 341 143.333333333 409.333333333 0 512 c 1
 0 512 0 512 82 512 c 1
 116 488 184.333333333 440.333333333 287 369 c 1
EndSplineSet
Comment: "."
EndChar

StartChar: sh_s
Encoding: 456 115 200
Width: 574
Flags: HW
LayerCount: 2
Fore
SplineSet
287 348 m 1
 321 375.333333333 389.333333333 430 492 512 c 1
 492 512 492 512 573 512 c 1
 525.666666667 474.666666667 430.333333333 399.666666667 287 287 c 1
 239 324.333333333 143.333333333 399.333333333 0 512 c 1
 0 512 0 512 82 512 c 1
 116 484.666666667 184.333333333 430 287 348 c 1
82 512 m 1
 82 512 82 512 0 512 c 1
 48 549.333333333 143.666666667 624.333333333 287 737 c 1
 334.333333333 699.666666667 429.666666667 624.666666667 573 512 c 1
 573 512 573 512 492 512 c 1
 457.333333333 539.333333333 389 594 287 676 c 1
 253 648.666666667 184.666666667 594 82 512 c 1
EndSplineSet
Comment: "."
EndChar

StartChar: sh_m
Encoding: 457 109 201
Width: 574
Flags: HW
LayerCount: 2
Fore
SplineSet
277 246 m 5
 277 246 277 246 482 246 c 5
 482 246 482 246 482 205 c 5
 482 205 482 205 277 205 c 5
 277 205 277 205 277 233 c 6
 277 233 277 233 277 246 c 5
72 246 m 5
 277 246 l 5
 277 211 l 5
 277 205 l 5
 72 205 l 5
 72 246 l 5
82 512 m 1
 82 512 82 512 0 512 c 1
 48 549.333333333 143.666666667 624.333333333 287 737 c 1
 334.333333333 699.666666667 429.666666667 624.666666667 573 512 c 1
 573 512 573 512 492 512 c 1
 457.333333333 539.333333333 389 594 287 676 c 1
 253 648.666666667 184.666666667 594 82 512 c 1
EndSplineSet
Comment: "."
EndChar

StartChar: sh_w
Encoding: 458 119 202
Width: 574
Flags: HW
LayerCount: 2
Fore
SplineSet
277 246 m 5
 277 246 277 246 482 246 c 5
 482 246 482 246 482 205 c 5
 482 205 482 205 277 205 c 5
 277 205 277 205 277 233 c 6
 277 233 277 233 277 246 c 5
72 246 m 5
 277 246 l 5
 277 211 l 5
 277 205 l 5
 72 205 l 5
 72 246 l 5
287 369 m 1
 321 392.333333333 389.333333333 440 492 512 c 1
 492 512 492 512 573 512 c 1
 525.666666667 478 430.333333333 409.666666667 287 307 c 1
 239 341 143.333333333 409.333333333 0 512 c 1
 0 512 0 512 82 512 c 1
 116 488 184.333333333 440.333333333 287 369 c 1
EndSplineSet
Comment: "."
EndChar

StartChar: sh_h
Encoding: 459 104 203
Width: 574
Flags: HW
LayerCount: 2
Fore
SplineSet
277 246 m 5
 277 246 277 246 482 246 c 5
 482 246 482 246 482 205 c 5
 482 205 482 205 277 205 c 5
 277 205 277 205 277 233 c 6
 277 233 277 233 277 246 c 5
72 246 m 5
 277 246 l 5
 277 211 l 5
 277 205 l 5
 72 205 l 5
 72 246 l 5
287 348 m 1
 321 375.333333333 389.333333333 430 492 512 c 1
 492 512 492 512 573 512 c 1
 525.666666667 474.666666667 430.333333333 399.666666667 287 287 c 1
 239 324.333333333 143.333333333 399.333333333 0 512 c 1
 0 512 0 512 82 512 c 1
 116 484.666666667 184.333333333 430 287 348 c 1
82 512 m 1
 82 512 82 512 0 512 c 1
 48 549.333333333 143.666666667 624.333333333 287 737 c 1
 334.333333333 699.666666667 429.666666667 624.666666667 573 512 c 1
 573 512 573 512 492 512 c 1
 457.333333333 539.333333333 389 594 287 676 c 1
 253 648.666666667 184.666666667 594 82 512 c 1
EndSplineSet
Comment: "."
EndChar
EndChars
EndSplineFont
